{
  "formatVersion": 1,
  "database": {
    "version": 3,
    "identityHash": "fc630ebdf19c27a77181404a55813b35",
    "entities": [
      {
        "tableName": "User",
        "createSql": "CREATE TABLE IF NOT EXISTS `${TABLE_NAME}` (`uid` INTEGER PRIMARY KEY AUTOINCREMENT NOT NULL, `user_number` TEXT, `call_number` TEXT, `call_time` INTEGER NOT NULL, `call_length` INTEGER NOT NULL, `hanged` INTEGER NOT NULL, `isOutgoing` INTEGER NOT NULL)",
        "fields": [
          {
            "fieldPath": "uid",
            "columnName": "uid",
            "affinity": "INTEGER",
            "notNull": true
          },
          {
            "fieldPath": "userNumber",
            "columnName": "user_number",
            "affinity": "TEXT",
            "notNull": false
          },
          {
            "fieldPath": "callNumber",
            "columnName": "call_number",
            "affinity": "TEXT",
            "notNull": false
          },
          {
            "fieldPath": "callTime",
            "columnName": "call_time",
            "affinity": "INTEGER",
            "notNull": true
          },
          {
            "fieldPath": "callLength",
            "columnName": "call_length",
            "affinity": "INTEGER",
            "notNull": true
          },
          {
            "fieldPath": "hanged",
            "columnName": "hanged",
            "affinity": "INTEGER",
            "notNull": true
          },
          {
            "fieldPath": "isOutgoing",
            "columnName": "isOutgoing",
            "affinity": "INTEGER",
            "notNull": true
          }
        ],
        "primaryKey": {
          "columnNames": [
            "uid"
          ],
          "autoGenerate": true
        },
        "indices": [],
        "foreignKeys": []
      },
      {
        "tableName": "Exclude",
        "createSql": "CREATE TABLE IF NOT EXISTS `${TABLE_NAME}` (`uid` INTEGER PRIMARY KEY AUTOINCREMENT NOT NULL, `exclude_number` TEXT, `exclude_checked` INTEGER NOT NULL)",
        "fields": [
          {
            "fieldPath": "uid",
            "columnName": "uid",
            "affinity": "INTEGER",
            "notNull": true
          },
          {
            "fieldPath": "excludeNumber",
            "columnName": "exclude_number",
            "affinity": "TEXT",
            "notNull": false
          },
          {
            "fieldPath": "checked",
            "columnName": "exclude_checked",
            "affinity": "INTEGER",
            "notNull": true
          }
        ],
        "primaryKey": {
          "columnNames": [
            "uid"
          ],
          "autoGenerate": true
        },
        "indices": [],
        "foreignKeys": []
      }
    ],
    "setupQueries": [
      "CREATE TABLE IF NOT EXISTS room_master_table (id INTEGER PRIMARY KEY,identity_hash TEXT)",
      "INSERT OR REPLACE INTO room_master_table (id,identity_hash) VALUES(42, \"fc630ebdf19c27a77181404a55813b35\")"
    ]
  }
}